<svg xmlns="http://www.w3.org/2000/svg" xmlns:xlink="http://www.w3.org/1999/xlink" width="32" height="32" viewBox="0 0 32 32">
  <defs>
    <clipPath id="clip-path">
      <rect id="Rectangle_2224" data-name="Rectangle 2224" width="32" height="32" transform="translate(0 0)" fill="#fff" stroke="#cfcfcf" stroke-width="1"/>
    </clipPath>
    <clipPath id="clip-path-2">
      <rect id="Rectangle_2886" data-name="Rectangle 2886" width="32" height="32" transform="translate(0 0)" fill="#fff" stroke="#707070" stroke-width="1"/>
    </clipPath>
  </defs>
  <g id="Mask_Group_50" data-name="Mask Group 50" transform="translate(0 0)" clip-path="url(#clip-path)">
    <g id="Mask_Group_95" data-name="Mask Group 95" transform="translate(0 -1)" clip-path="url(#clip-path-2)">
      <g id="Group_17416" data-name="Group 17416" transform="translate(-257.714 -156.271)">
        <g id="Group_17415" data-name="Group 17415" transform="translate(259.714 158.272)">
          <path id="Path_14867" data-name="Path 14867" d="M287.714,160.378a2.107,2.107,0,0,0-2.107-2.106H273.841v0c-.041,0-.081,0-.122,0a14.014,14.014,0,1,0,13.994,14.006v-.012c0-.04,0-.081,0-.121h0Zm-3.405,11.886v0c0,.275-.01.549-.03.818a10.591,10.591,0,1,1-10.561-11.41c.052,0,.106,0,.158,0a10.586,10.586,0,0,1,10.431,10.433C284.309,172.162,284.309,172.212,284.309,172.264Z" transform="translate(-259.714 -158.272)" fill="#cfcfcf"/>
        </g>
      </g>
    </g>
  </g>
</svg>
