<svg id="Component_105_1" data-name="Component 105 – 1" xmlns="http://www.w3.org/2000/svg" xmlns:xlink="http://www.w3.org/1999/xlink" width="32" height="32" viewBox="0 0 32 32">
  <defs>
    <clipPath id="clip-path">
      <ellipse id="Ellipse_521" data-name="Ellipse 521" cx="11.015" cy="11.015" rx="11.015" ry="11.015" fill="none"/>
    </clipPath>
  </defs>
  <g id="Ellipse_1-2" data-name="Ellipse 1-2">
    <circle id="Ellipse_520" data-name="Ellipse 520" cx="16" cy="16" r="16" fill="none"/>
  </g>
  <g id="Group_14438" data-name="Group 14438" transform="translate(5 6)">
    <g id="Group_13170" data-name="Group 13170" transform="translate(0 -1)" clip-path="url(#clip-path)">
      <path id="Path_2300" data-name="Path 2300" d="M-370.211,519.324c-2.079,1.924-13.65,3.1-16.7,3.1s-14.623-1.175-16.7-3.1l14.142-7.923v-2.119a4.02,4.02,0,0,1-2.18-3.6v-3.209a3.958,3.958,0,0,1,3.894-4.018h1.557a3.959,3.959,0,0,1,3.895,4.018v3.209a4.021,4.021,0,0,1-2.2,3.6v2.048Z" transform="translate(397.852 -495.767)" fill="#fdd32a"/>
    </g>
  </g>
</svg>
